{
    "openapi": "3.0.0",
    "info": {
        "title": "FIZZY AUCTION",
        "description": "AUCTIO IS A BRAND NEW AUCTION FOR SELLING VINTAGE CLOTHES",
        "contact": {
            "email": "nbot230@gmail.com"
        },
        "version": "1.0.0"
    },
    "servers": [
        {
            "url": "http://my-default-host.com",
            "description": "Fizzy server"
        }
    ],
    "paths": {
        "/auth/sign-in": {
            "post": {
                "tags": [
                    "Юзеры"
                ],
                "summary": "Получение токена пользователя для авторизации запросов",
                "description": "Метод для логина юзера",
                "operationId": "d055926f1c74204d68c8bb5e056ddb79",
                "parameters": [
                    {
                        "name": "email",
                        "in": "path",
                        "description": "Email пользователя",
                        "required": true,
                        "schema": {
                            "type": "string"
                        }
                    },
                    {
                        "name": "password",
                        "in": "path",
                        "description": "Password пользователя",
                        "required": true,
                        "schema": {
                            "type": "string"
                        }
                    }
                ],
                "responses": {
                    "200": {
                        "description": "Результат логина пользователя",
                        "content": {
                            "application/json": {
                                "schema": {
                                    "$ref": "#/components/schemas/UserAuthResponseDTO"
                                }
                            }
                        }
                    },
                    "500": {
                        "description": "Ошибка сервера"
                    }
                }
            }
        },
        "/auth/sign-up": {
            "post": {
                "tags": [
                    "Юзеры"
                ],
                "description": "Метод для регистрации пользователя",
                "operationId": "acf173ad96bf4164b69906889a9491ac",
                "parameters": [
                    {
                        "name": "email",
                        "in": "path",
                        "description": "Email пользователя",
                        "required": true,
                        "schema": {
                            "type": "string"
                        }
                    },
                    {
                        "name": "phone",
                        "in": "path",
                        "description": "Phone пользователя",
                        "required": true,
                        "schema": {
                            "type": "string",
                            "example": "+7999999999"
                        }
                    },
                    {
                        "name": "password",
                        "in": "path",
                        "description": "Password пользователя",
                        "required": true,
                        "schema": {
                            "type": "string"
                        }
                    }
                ],
                "responses": {
                    "200": {
                        "description": "Результат регистрации",
                        "content": {
                            "application/json": {
                                "schema": {
                                    "$ref": "#/components/schemas/UserAuthResponseDTO"
                                }
                            }
                        }
                    },
                    "500": {
                        "$ref": "#/components/schemas/UserAuthResponseDTO"
                    },
                    "422": {
                        "$ref": "#/components/schemas/UserAuthResponseDTO"
                    }
                }
            }
        }
    },
    "components": {
        "schemas": {
            "UserAuthResponseDTO": {
                "title": "Ответ при аутентификации пользователя",
                "description": "Class UserAuthResponseDTO",
                "properties": {
                    "success": {
                        "description": "Успешность запроса",
                        "type": "bool | null",
                        "example": "false"
                    },
                    "token": {
                        "description": "Токен в случае успешной авторизации",
                        "type": "string | null",
                        "example": "FKqnw12FQ124qwgq1"
                    },
                    "errors": {
                        "description": "Ошибки",
                        "type": "array",
                        "items": {
                            "type": "string"
                        }
                    },
                    "message": {
                        "description": "Сообщение в случае ошибки",
                        "type": "string | null",
                        "example": "Не удалось создать пользователя"
                    }
                },
                "type": "object"
            }
        }
    },
    "tags": [
        {
            "name": "FIZZY",
            "description": "API Endpoints of Project"
        }
    ]
}